{ 
    "count":105,
    "next":"https://hub.docker.com/v2/repositories/library/mysql/tags/?page=2\u0026page_size=20",
    "previous":null,
    "results":[ 
       { 
          "name":"latest",
          "full_size":136675781,
          "id":20021,
          "repository":21179
          
       },
       { 
          "name":"8.0.19",
          "full_size":136675781,
          "id":82639384,
          "repository":21179
       },
       { 
          "name":"8.0",
          "full_size":136675781,
          
          "id":5471601,
          "repository":21179
          
       },
       { 
          "name":"8",
          "full_size":136675781,
          
          "id":5472027,
          "repository":21179
         
       }
       
      
    ]
 }
 
 
